[
   {
      "style": {
         "title": "Door Style",
         "name": "Style Name",
         "thumbnail": "http://cdn3.volusion.com/ufddy.cnppv/v/vspfiles/photos/NEWYORK-IP-DOOR-2T.jpg?v-cache=1584123469",
         "items":[
            {
               "name": "Style Name 1",
               "thumbnail": "http://cdn3.volusion.com/ufddy.cnppv/v/vspfiles/photos/NEWYORK-IP-DOOR-2T.jpg?v-cache=1584123469",
               "description": "description 1",
               "kind" : "Style"
            },
            {
               "name": "Style Name 2",
               "thumbnail": "http://cdn3.volusion.com/ufddy.cnppv/v/vspfiles/photos/NEWYORK-IP-DOOR-2T.jpg?v-cache=1584123469",
               "description": "description 2",
               "kind" : "Style"
            }
         ]
      },
      "material": {
         "title": "Door Material",
         "name": "Material Name",
         "thumbnail": "https://cdn.shopify.com/s/files/1/2444/1465/products/2116353392705.jpg?v=1564188808",
         "items":[
            {
               "name": "Material Name 1",
               "thumbnail": "https://cdn.shopify.com/s/files/1/2444/1465/products/2116353392705.jpg?v=1564188808",
               "description": "description 1",
               "kind" : "Material"
            },
            {
               "name": "Material Name 2",
               "thumbnail": "https://cdn.shopify.com/s/files/1/2444/1465/products/2116353392705.jpg?v=1564188808",
               "description": "description 2",
               "kind" : "Material"
            }
         ]
      }
   },
   {
      "style": {
         "title": "Cabinet Style",
         "name": "Style Name",
         "thumbnail": "https://i.pinimg.com/236x/6f/ed/61/6fed61369ff13a67759f0dd3b2f004c0.jpg",
         "items":[
            {
               "name": "Style Name 1",
               "thumbnail": "https://i.pinimg.com/236x/6f/ed/61/6fed61369ff13a67759f0dd3b2f004c0.jpg",
               "description": "description 1",
               "kind" : "Style"
            },
            {
               "name": "Style Name 2",
               "thumbnail": "https://i.pinimg.com/236x/6f/ed/61/6fed61369ff13a67759f0dd3b2f004c0.jpg",
               "description": "description 2",
               "kind" : "Style"
            },
            {
               "name": "Style Name 3",
               "thumbnail": "https://i.pinimg.com/236x/b2/90/15/b29015abf4a231a9337db5e4c738272d.jpg",
               "description": "description 3",
               "kind" : "Style"
            }
         ]
      },
      "material": {
         "title": "Cabinet Material",
         "name": "Material Name",
         "thumbnail": "https://i.pinimg.com/236x/b2/90/15/b29015abf4a231a9337db5e4c738272d.jpg",
         "items":[
            {
               "name": "Material Name 1",
               "thumbnail": "https://i.pinimg.com/236x/10/d0/79/10d079fb503c1ca7100f02644562e3e1.jpg",
               "description": "description 1",
               "kind" : "Material"
            },
            {
               "name": "Material Name 2",
               "thumbnail": "https://i.pinimg.com/236x/b2/90/15/b29015abf4a231a9337db5e4c738272d.jpg",
               "description": "description 2",
               "kind" : "Material"
            },
            {
               "name": "Material Name 3",
               "thumbnail": "https://i.pinimg.com/236x/b2/90/15/b29015abf4a231a9337db5e4c738272d.jpg",
               "description": "description 3",
               "kind" : "Material"
            }
         ]
      }
   },
   {
      "style": {
         "title": "Drawer Style",
         "name": "Style Name",
         "thumbnail": "https://cdn2.bigcommerce.com/server5100/7c65a/products/471/images/1090/Plywood-Corner__29580.1503000608.220.220.jpg?c=2",
         "items":[
            {
               "name": "Style Name 1",
               "thumbnail": "https://cdn2.bigcommerce.com/server5100/7c65a/products/471/images/1090/Plywood-Corner__29580.1503000608.220.220.jpg?c=2",
               "description": "description 1",
               "kind" : "Style"
            },
            {
               "name": "Style Name 2",
               "thumbnail": "https://cdn2.bigcommerce.com/server5100/7c65a/products/471/images/1090/Plywood-Corner__29580.1503000608.220.220.jpg?c=2",
               "description": "description 2",
               "kind" : "Style"
            }
         ]
      },
      "material": {
         "title": "Drawer Material",
         "name": "Material Name",
         "thumbnail": "http://coronamillworks.com/wp-content/uploads/2017/02/3boxesstacked300.jpg",
         "items":[
            {
               "name": "Material Name 1",
               "thumbnail": "http://coronamillworks.com/wp-content/uploads/2017/02/3boxesstacked300.jpg",
               "description": "description 1",
               "kind" : "Material"
            },
            {
               "name": "Material Name 2",
               "thumbnail": "http://coronamillworks.com/wp-content/uploads/2017/02/3boxesstacked300.jpg",
               "description": "description 2",
               "kind" : "Material"
            },
            {
               "name": "Material Name 3",
               "thumbnail": "http://coronamillworks.com/wp-content/uploads/2017/02/3boxesstacked300.jpg",
               "description": "description 3",
               "kind" : "Material"
            }
         ]
      }
   }
]
 